data_visualization – Neurowissenschaft Computerlab
…
Wir berechnen nun für die kommenden Grafiken die Anzahl Trials pro Person, die accuracy, sowie die mittlere Reaktionszeit für die Bedingungen congruent und incongruent (wie im Kapitel Aggregierte Statistiken beschrieben).

# Daten gruppieren:  Anzahl Trials, Accuracy und mittlere Reaktionszeit berechnen
acc_rt_individual <- d |>
    group_by(id, condition) |>
    summarise(
        N = n(),
        ncorrect = sum(corr),
        accuracy = mean(corr),
        median_rt = median(rt)
    )
acc_rt_individual

# A tibble: 468 × 6
# Groups:   id [234]
   id      condition       N ncorrect accuracy median_rt
   <fct>   <fct>       <int>    <dbl>    <dbl>     <dbl>
 1 sub-001 congruent      60       56    0.933     0.487
 2 sub-001 incongruent    60       55    0.917     0.535
 3 sub-002 congruent      60       60    1         0.544
 4 sub-002 incongruent    60       54    0.9       0.619
 5 sub-003 congruent      60       59    0.983     0.704
 6 sub-003 incongruent    60       59    0.983     0.708
 7 sub-004 congruent      60       60    1         0.606
 8 sub-004 incongruent    60       49    0.817     0.778
 9 sub-005 congruent      60       58    0.967     0.616
10 sub-005 incongruent    60       35    0.583     0.863
# ℹ 458 more rows
…
