psychometric_functions – Neurowissenschaft Computerlab
…
Dazu berechnen wir den Anteil von seen pro Bedingung und Sichtbarkeitslevel.

d_summary <- d |>
  group_by(condition, visLevel) |>
  summarise(
    n = n(),
    n_seen = sum(seen),
    p_seen = mean(seen),
    .groups = "drop"
  )

d_summary

# A tibble: 21 × 5
   condition  visLevel     n n_seen p_seen
   <fct>         <dbl> <int>  <dbl>  <dbl>
 1 no imagery      0    1209     39 0.0323
 2 no imagery      3.7  1210    387 0.320 
 3 no imagery      4.8  1214    676 0.557 
 4 no imagery      5.3  1210    819 0.677 
 5 no imagery      6.1  1201    983 0.818 
 6 no imagery      7.3  1195   1091 0.913 
 7 no imagery     14    1142   1136 0.995 
 8 congruent       0    1496     79 0.0528
 9 congruent       3.7  1494    593 0.397 
10 congruent       4.8  1495    964 0.645 
# ℹ 11 more rows
…
Funktionen pro Person und Bedingung fitten

params_id <- d |>
  group_by(id, condition) |>
  group_modify(~ fit_one_psychometric(.x)) |>
  ungroup()

params_id

# A tibble: 373 × 6
   id      condition   intercept slope threshold p_at_zero
   <chr>   <fct>           <dbl> <dbl>     <dbl>     <dbl>
 1 sub-001 no imagery    -6.09   1.46      4.16    0.00226
 2 sub-001 congruent     -0.897  0.737     1.22    0.290  
 3 sub-001 incongruent   -3.14   0.855     3.67    0.0414 
 4 sub-002 no imagery    -0.936  0.354     2.65    0.282  
 5 sub-002 congruent     -0.0647 0.359     0.180   0.484  
 6 sub-002 incongruent   -0.788  0.260     3.03    0.313  
 7 sub-003 no imagery    -2.57   0.633     4.05    0.0714 
 8 sub-003 congruent     -4.07   1.06      3.86    0.0168 
 9 sub-003 incongruent   -2.18   0.707     3.08    0.102  
10 sub-004 no imagery    -4.58   0.984     4.65    0.0102 
# ℹ 363 more rows
…
Dafür verwenden wir gepaarte t-Tests, weil dieselben Personen in allen Bedingungen gemessen wurden.

Zuerst bringen wir die Daten ins breite Format. Dann stehen die drei Bedingungen einer Person in derselben Zeile.

threshold_wide <- params_id |>
  select(id, condition, threshold) |>
  pivot_wider(
    names_from = condition,
    values_from = threshold
  ) |>
  drop_na()

threshold_wide

# A tibble: 104 × 4
   id      `no imagery` congruent incongruent
   <chr>          <dbl>     <dbl>       <dbl>
 1 sub-001         4.16     1.22         3.67
 2 sub-002         2.65     0.180        3.03
 3 sub-003         4.05     3.86         3.08
 4 sub-004         4.65     4.46         4.73
 5 sub-007         5.15     4.37         4.85
 6 sub-008         4.41     4.95         4.39
 7 sub-010         5.54     4.02         4.91
 8 sub-011         4.31     2.58         4.17
 9 sub-012         3.59     3.88         3.46
10 sub-013         3.85     3.88         3.71
# ℹ 94 more rows
…
